…
…ainsi que data.frame : une table de données (comme swiss) et tibble qui en est un sous-type.

Recoder des variables : ifelse()

Syntaxe :

ifelse(condition),

valeur_si_vrai,

valeur_si_faux)

swiss %>%  mutate(religion = ifelse(part_catholique < 50, "Protestant", "Catholique"))

## # A tibble: 47 × 8
##    canton       indice_fecondite part_agriculteurs part_examen part_education part_catholique
##    <chr>                   <dbl>             <dbl>       <int>          <int>           <dbl>
##  1 Courtelary               80.2              17            15             12            9.96
##  2 Delemont                 83.1              45.1           6              9           84.8 
##  3 Franches-Mnt             92.5              39.7           5              5           NA   
##  4 Moutier                  85.8              36.5          12              7           33.8 
##  5 Neuveville               76.9              43.5          17             15            5.16
##  6 Porrentruy               76.1              35.3           9              7           90.6 
##  7 Broye                    83.8              70.2          16              7           NA   
##  8 Glane                    92.4              67.8          14              8           97.2 
##  9 Gruyere                  82.4              53.3          12              7           97.7 
## 10 Sarine                   82.9              45.2          16             13           91.4 
## # … with 37 more rows, and 2 more variables: mortalite_infantile <dbl>, religion <chr>
…
Dans les calculs statistiques (par exemple avec les fonctions appelées par summarise), il y a généralement un argument supplémentaire na.rm (pour “remove”) qui permet de ne pas tenir compte des valeurs manquantes, mais son positionnement par défaut est souvent à “faux” (FALSE).

Le test d’égalité avec valeur manquante (... == NA) renvoie systématiquement “valeur manquante”, y compris vis-à-vis de “valeur manquante”. La seule façon de faire le test est de recourir à la fonction is.na().

Travailler avec des données manquantes : is.na()

Exemple de recodage d’une valeur manquante :

swiss %>% 
    mutate(religion = ifelse(part_catholique < 50, "Protestant", "Catholique")) %>% 
    mutate(religion = ifelse(is.na(religion), "Inconnue", religion))

## # A tibble: 47 × 8
##    canton       indice_fecondite part_agriculteurs part_examen part_education part_catholique
##    <chr>                   <dbl>             <dbl>       <int>          <int>           <dbl>
##  1 Courtelary               80.2              17            15             12            9.96
##  2 Delemont                 83.1              45.1           6              9           84.8 
##  3 Franches-Mnt             92.5              39.7           5              5           NA   
##  4 Moutier                  85.8              36.5          12              7           33.8 
##  5 Neuveville               76.9              43.5          17             15            5.16
##  6 Porrentruy               76.1              35.3           9              7           90.6 
##  7 Broye                    83.8              70.2          16              7           NA   
##  8 Glane                    92.4              67.8          14              8           97.2 
##  9 Gruyere                  82.4              53.3          12              7           97.7 
## 10 Sarine                   82.9              45.2          16             13           91.4 
## # … with 37 more rows, and 2 more variables: mortalite_infantile <dbl>, religion <chr>
…
